1	83	22	F
2	960	43	F
3	66	90	F
4	969	77	M
5	168	83	M
6	517	61	F
7	546	73	M
8	486	28	M
9	841	22	F
10	757	22	M
11	52	78	M
12	307	64	M
13	578	61	F
14	249	53	M
15	196	35	F
16	600	48	F
17	980	36	F
18	290	66	F
19	819	46	M
20	742	34	F
21	124	51	M
22	367	54	M
23	733	85	F
24	326	99	F
25	451	40	F
26	696	49	F
27	589	94	F
28	887	71	M
29	746	85	F
30	893	83	F
31	812	24	F
32	737	65	M
33	895	23	F
34	203	64	F
35	245	42	M
36	232	65	M
37	787	42	M
38	753	44	F
39	961	61	F
40	141	80	F
41	101	21	M
42	847	79	M
43	262	27	M
44	88	50	F
45	423	20	M
46	247	95	M
47	987	73	F
48	23	71	F
49	931	54	M
50	97	84	F
51	163	67	F
52	699	30	M
53	329	97	F
54	444	40	M
55	669	70	F
56	50	77	F
57	455	86	F
58	637	58	F
59	949	63	F
60	337	52	F
61	159	63	F
62	853	95	M
63	76	39	M
64	43	86	M
65	391	57	F
66	264	61	F
67	574	89	M
68	556	89	F
69	815	93	F
70	899	51	F
71	892	21	F
72	30	80	F
73	30	60	M
74	579	75	M
75	32	77	M
76	932	80	M
77	436	69	F
78	750	37	F
79	253	31	F
80	967	92	F
81	660	77	M
82	346	97	F
83	489	37	F
84	11	37	F
85	889	25	F
86	759	83	F
87	353	60	F
88	468	75	F
89	858	78	M
90	840	42	F
91	35	93	M
92	255	92	M
93	796	74	M
94	938	72	F
95	455	98	F
96	602	34	M
97	931	32	M
98	29	47	M
99	114	23	F
100	588	71	F
101	118	93	F
102	573	54	F
103	404	68	F
104	62	78	F
105	481	28	F
106	228	100	M
107	814	41	F
108	871	57	M
109	664	98	M
110	760	80	M
111	194	49	M
112	468	37	M
113	721	74	M
114	671	98	M
115	551	87	M
116	431	73	F
117	781	57	F
118	481	27	F
119	816	23	M
120	365	60	M
121	653	83	F
122	540	91	M
123	173	73	M
124	153	77	F
125	740	85	F
126	359	52	F
127	620	64	F
128	532	74	M
129	937	79	M
130	807	21	F
131	500	74	F
132	156	56	M
133	397	97	M
134	62	59	M
135	339	90	M
136	510	74	F
137	32	52	M
138	454	95	M
139	65	37	F
140	650	49	F
141	362	74	F
142	229	21	M
143	918	88	M
144	770	71	M
145	756	59	F
146	624	73	F
147	558	51	M
148	135	78	F
149	931	38	F
150	496	28	M
151	860	99	F
152	735	33	M
153	109	40	F
154	542	57	F
155	660	58	F
156	796	38	M
157	837	33	M
158	722	87	M
159	510	34	F
160	892	32	M
161	476	61	F
162	9	82	M
163	639	64	F
164	379	72	M
165	215	46	M
166	99	53	F
167	845	51	F
168	527	69	M
169	747	98	M
170	241	58	F
171	361	39	M
172	35	65	F
173	732	44	F
174	530	65	M
175	955	41	F
176	353	38	F
177	333	73	F
178	787	88	M
179	324	70	F
180	495	49	F
181	61	78	M
182	258	50	F
183	660	93	F
184	992	49	F
185	982	99	M
186	29	66	F
187	467	90	F
188	755	51	F
189	555	51	M
190	399	97	M
191	144	78	F
192	811	37	M
193	934	30	F
194	776	85	M
195	54	33	M
196	602	96	M
197	772	20	M
198	282	32	F
199	223	86	F
200	760	23	M
201	739	87	M
202	122	84	M
203	598	38	M
204	314	22	F
205	493	39	F
206	216	58	F
207	167	79	M
208	902	86	M
209	981	74	F
210	163	34	M
211	4	38	F
212	926	51	F
213	689	69	M
214	228	95	F
215	954	53	M
216	217	57	M
217	91	33	M
218	365	49	F
219	888	65	F
220	433	29	F
221	543	74	M
222	86	54	M
223	904	88	F
224	682	29	M
225	154	89	F
226	899	40	M
227	220	23	M
228	939	65	M
229	194	70	M
230	872	38	F
231	505	70	F
232	27	98	M
233	561	91	M
234	627	92	M
235	658	49	M
236	579	75	F
237	383	43	F
238	665	72	M
239	341	93	M
240	132	55	F
241	683	24	F
242	703	31	M
243	208	81	F
244	325	74	M
245	659	96	F
246	945	43	M
247	431	70	F
248	422	68	F
249	705	35	F
250	907	40	M
251	828	34	F
252	421	26	F
253	637	80	M
254	668	75	M
255	99	22	F
256	234	29	F
257	744	59	F
258	384	22	M
259	541	54	F
260	377	76	M
261	175	73	F
262	724	30	F
263	175	81	M
264	341	58	M
265	172	97	M
266	49	39	F
267	189	97	M
268	784	83	F
269	383	93	F
270	322	55	F
271	363	55	M
272	521	24	F
273	625	38	F
274	180	57	M
275	325	59	F
276	376	58	M
277	866	64	M
278	854	70	M
279	168	24	F
280	513	29	M
281	501	34	M
282	987	54	M
283	409	95	M
284	166	55	F
285	934	27	F
286	637	85	M
287	232	29	M
288	136	94	F
289	729	41	M
290	458	79	M
291	337	62	M
292	517	91	F
293	738	90	M
294	916	38	M
295	880	100	M
296	84	23	M
297	152	33	M
298	970	81	M
299	148	71	F
300	292	51	F
301	340	100	F
302	359	50	F
303	157	52	M
304	484	93	F
305	850	71	M
306	220	38	M
307	697	99	F
308	810	95	F
309	696	62	M
310	692	73	F
311	622	85	F
312	296	38	F
313	872	93	F
314	131	91	F
315	95	79	M
316	481	74	F
317	315	92	M
318	322	97	F
319	593	64	M
320	424	58	M
321	650	72	M
322	517	55	F
323	96	47	M
324	180	28	M
325	949	79	M
326	112	86	M
327	821	96	M
328	35	87	M
329	502	58	M
330	875	90	F
331	869	20	F
332	501	39	F
333	244	53	F
334	942	95	M
335	267	50	F
336	332	98	M
337	305	61	M
338	438	48	F
339	165	42	M
340	650	75	F
341	716	83	F
342	437	20	M
343	934	30	M
344	391	56	M
345	42	99	M
346	661	74	F
347	437	23	M
348	45	31	F
349	312	28	F
350	30	67	F
351	349	30	M
352	379	30	F
353	753	61	F
354	800	87	M
355	189	83	F
356	291	75	M
357	776	60	M
358	32	89	F
359	277	98	F
360	842	98	M
361	802	98	M
362	537	45	F
363	423	65	M
364	11	70	M
365	948	49	M
366	810	82	M
367	603	71	F
368	390	64	M
369	409	85	F
370	993	66	F
371	392	92	F
372	973	50	M
373	739	34	M
374	718	23	F
375	892	54	M
376	280	85	F
377	674	48	M
378	977	74	M
379	300	38	F
380	409	40	F
381	278	30	M
382	228	66	M
383	62	47	F
384	266	88	F
385	207	28	M
386	92	24	M
387	167	96	F
388	2	93	M
389	993	43	M
390	199	85	M
391	914	82	F
392	730	92	M
393	506	51	M
394	329	65	F
395	243	23	M
396	948	38	F
397	898	56	F
398	89	57	F
399	853	76	F
400	1000	39	M
401	195	78	M
402	413	65	F
403	909	78	M
404	129	36	M
405	413	28	F
406	460	42	M
407	909	20	M
408	403	30	M
409	427	78	M
410	235	65	M
411	874	20	M
412	183	59	M
413	240	96	M
414	438	73	M
415	437	83	M
416	556	34	F
417	708	84	F
418	903	66	F
419	704	66	F
420	232	29	M
421	472	64	M
422	521	65	M
423	443	53	F
424	875	82	F
425	422	69	F
426	983	42	M
427	739	65	M
428	165	56	M
429	360	60	M
430	197	95	F
431	981	29	M
432	828	22	F
433	634	88	M
434	267	31	F
435	431	29	M
436	281	67	M
437	241	78	M
438	457	32	F
439	101	93	F
440	690	85	F
441	609	59	F
442	987	92	F
443	92	91	M
444	805	34	M
445	893	20	F
446	59	54	F
447	498	50	M
448	201	44	F
449	964	47	M
450	226	80	M
451	459	41	M
452	824	20	F
453	688	49	F
454	996	98	F
455	654	27	M
456	89	63	F
457	137	48	M
458	935	57	M
459	406	90	F
460	911	70	F
461	318	43	M
462	793	32	F
463	781	61	M
464	894	100	F
465	443	67	M
466	731	73	M
467	878	35	M
468	235	80	F
469	207	43	F
470	188	20	M
471	68	23	M
472	281	83	F
473	394	48	M
474	45	21	M
475	543	90	M
476	272	36	M
477	431	48	M
478	755	81	M
479	21	23	F
480	393	38	F
481	2	39	M
482	907	74	F
483	576	99	F
484	161	69	F
485	676	46	M
486	19	23	F
487	975	90	M
488	308	38	F
489	820	28	F
490	128	45	M
491	618	20	F
492	360	38	F
493	637	31	F
494	241	48	M
495	40	57	M
496	681	93	M
497	316	20	F
498	188	89	M
499	133	20	M
500	845	66	M
501	47	57	M
502	1000	67	M
503	864	32	M
504	112	30	F
505	55	81	M
506	320	21	M
507	392	68	M
508	610	66	F
509	791	45	F
510	222	60	M
511	532	51	F
512	578	100	F
513	633	51	M
514	461	59	F
515	518	57	F
516	458	91	F
517	84	76	M
518	854	22	F
519	594	45	M
520	283	76	F
521	295	50	M
522	876	73	M
523	351	35	F
524	991	43	M
525	163	43	M
526	469	44	M
527	394	32	M
528	944	23	M
529	453	77	F
530	526	89	M
531	405	67	M
532	721	62	M
533	145	77	F
534	278	31	M
535	287	55	F
536	151	75	F
537	159	48	M
538	41	32	M
539	843	41	F
540	893	94	F
541	729	36	M
542	318	95	F
543	982	63	F
544	498	24	F
545	335	39	M
546	794	46	M
547	22	23	M
548	92	90	M
549	71	80	M
550	917	46	M
551	573	98	F
552	283	67	F
553	56	51	F
554	538	83	M
555	34	53	F
556	414	27	M
557	502	27	F
558	753	76	M
559	455	83	F
560	125	25	F
561	301	36	F
562	565	49	F
563	99	49	M
564	985	38	M
565	821	21	F
566	652	33	M
567	707	25	M
568	21	97	F
569	639	60	M
570	364	45	F
571	472	71	M
572	256	82	F
573	190	80	M
574	625	34	F
575	173	74	M
576	457	40	M
577	460	64	F
578	732	24	F
579	870	24	M
580	164	98	F
581	679	81	F
582	944	28	F
583	657	37	F
584	230	44	F
585	977	57	F
586	258	97	F
587	776	68	F
588	284	51	M
589	438	22	F
590	145	65	F
591	271	66	F
592	56	65	F
593	781	26	M
594	270	45	M
595	541	88	F
596	737	32	M
597	97	34	F
598	51	40	M
599	455	77	M
600	83	63	M
601	899	61	M
602	927	40	F
603	773	81	F
604	859	77	F
605	433	34	M
606	925	43	M
607	157	74	F
608	135	45	M
609	557	90	F
610	552	98	M
611	744	36	M
612	419	54	F
613	737	27	M
614	439	91	M
615	844	73	F
616	412	76	F
617	154	76	M
618	534	27	M
619	515	87	M
620	15	96	M
621	574	29	F
622	39	43	F
623	613	36	M
624	483	66	F
625	315	61	M
626	33	87	F
627	528	57	F
628	857	56	M
629	968	76	M
630	735	24	F
631	333	87	F
632	447	73	M
633	41	76	F
634	272	49	F
635	75	62	M
636	951	58	F
637	614	69	F
638	809	41	M
639	856	44	M
640	747	56	M
641	374	33	F
642	131	37	M
643	657	45	F
644	695	82	M
645	558	79	M
646	613	23	M
647	718	92	F
648	902	33	M
649	598	53	M
650	435	94	M
651	208	65	F
652	278	86	M
653	338	63	F
654	207	44	F
655	591	49	F
656	210	58	M
657	932	86	M
658	702	77	M
659	828	62	F
660	578	55	F
661	660	21	F
662	888	37	M
663	883	72	M
664	529	60	M
665	175	46	F
666	196	61	F
667	358	31	F
668	772	49	M
669	256	72	F
670	731	96	M
671	140	31	F
672	374	39	F
673	146	35	M
674	562	69	F
675	222	41	M
676	860	32	M
677	740	62	F
678	373	70	M
679	868	49	M
680	535	23	M
681	655	25	F
682	545	37	F
683	34	46	F
684	124	82	M
685	558	69	F
686	394	73	F
687	394	51	F
688	8	86	F
689	536	79	M
690	270	49	M
691	187	67	M
692	674	93	M
693	64	53	F
694	767	96	M
695	122	30	M
696	786	32	M
697	281	87	M
698	819	77	M
699	601	41	F
700	316	94	F
701	521	53	F
702	811	80	F
703	205	26	M
704	109	97	M
705	434	48	F
706	791	56	F
707	4	88	F
708	875	66	F
709	812	34	F
710	873	87	M
711	206	41	F
712	148	96	F
713	789	73	F
714	542	49	F
715	189	78	M
716	563	100	F
717	799	74	F
718	346	35	F
719	192	67	F
720	335	46	F
721	342	44	M
722	983	69	F
723	444	31	F
724	799	44	F
725	670	46	F
726	210	82	M
727	639	52	F
728	28	59	M
729	34	42	F
730	735	28	M
731	532	71	M
732	990	44	F
733	722	31	M
734	553	36	M
735	535	31	M
736	593	85	M
737	612	79	F
738	101	89	F
739	27	94	F
740	494	86	F
741	721	50	M
742	775	75	F
743	396	79	F
744	943	89	M
745	590	94	F
746	44	58	F
747	629	76	F
748	271	33	M
749	892	86	M
750	453	50	F
751	716	56	M
752	678	67	M
753	869	60	F
754	826	77	F
755	889	42	F
756	650	76	F
757	846	22	M
758	988	56	F
759	338	73	M
760	299	32	M
761	285	68	F
762	610	86	M
763	63	36	M
764	64	88	F
765	204	63	F
766	479	96	M
767	45	78	M
768	312	70	F
769	326	97	M
770	411	32	F
771	725	45	M
772	291	24	M
773	893	44	F
774	828	36	F
775	399	39	F
776	61	24	M
777	979	63	M
778	757	30	M
779	263	50	F
780	958	99	M
781	651	76	M
782	28	23	F
783	988	92	F
784	339	20	M
785	935	37	M
786	540	34	M
787	379	88	F
788	701	45	F
789	293	72	M
790	763	41	F
791	755	57	M
792	408	84	F
793	804	49	F
794	157	86	F
795	110	47	F
796	534	85	M
797	969	31	F
798	52	27	M
799	154	81	F
800	442	78	F
801	256	38	F
802	232	76	M
803	870	39	F
804	48	66	F
805	647	23	M
806	456	90	F
807	419	73	M
808	486	86	F
809	907	78	F
810	420	59	F
811	949	71	M
812	958	73	F
813	683	46	F
814	889	30	M
815	60	23	F
816	147	50	M
817	598	32	F
818	595	34	F
819	906	41	M
820	530	50	F
821	505	35	F
822	156	22	F
823	353	86	F
824	39	63	M
825	102	95	M
826	618	37	F
827	933	83	F
828	530	36	F
829	945	70	M
830	536	37	F
831	631	50	F
832	835	99	M
833	653	60	M
834	28	69	F
835	524	59	M
836	57	48	M
837	236	27	F
838	781	26	F
839	747	77	M
840	764	88	F
841	258	75	M
842	439	38	F
843	763	85	F
844	258	44	F
845	539	68	F
846	152	84	F
847	926	73	F
848	426	87	M
849	776	45	M
850	380	80	M
851	351	52	M
852	626	34	M
853	870	49	F
854	337	74	F
855	23	93	M
856	369	61	M
857	429	89	F
858	78	60	F
859	571	66	M
860	237	91	M
861	422	38	M
862	637	34	F
863	675	31	M
864	500	44	F
865	24	91	M
866	165	56	F
867	681	96	F
868	159	27	F
869	642	49	F
870	535	86	M
871	638	48	M
872	27	98	M
873	366	53	F
874	861	94	M
875	849	53	M
876	211	82	M
877	177	75	F
878	876	33	M
879	642	65	F
880	191	90	F
881	350	70	F
882	520	29	F
883	361	88	M
884	180	52	M
885	926	77	M
886	667	73	M
887	221	50	F
888	840	61	M
889	334	92	F
890	344	85	F
891	892	95	M
892	109	62	F
893	292	29	F
894	527	86	M
895	808	24	M
896	234	34	M
897	94	83	F
898	914	31	M
899	145	94	M
900	387	69	F
901	795	37	F
902	481	27	M
903	735	85	F
904	92	75	F
905	662	56	M
906	100	20	F
907	646	93	F
908	288	50	M
909	782	25	M
910	105	28	M
911	724	94	F
912	748	27	M
913	296	79	F
914	201	88	F
915	130	36	M
916	231	89	F
917	900	89	F
918	190	91	M
919	908	40	F
920	140	37	F
921	618	92	M
922	69	80	F
923	365	62	F
924	244	95	M
925	545	100	F
926	273	52	M
927	416	88	F
928	21	94	M
929	361	22	F
930	464	85	M
931	375	32	M
932	422	60	M
933	219	40	M
934	361	43	F
935	114	34	F
936	274	27	M
937	1	86	M
938	729	100	M
939	132	72	F
940	514	88	F
941	238	53	F
942	498	67	F
943	147	35	F
944	654	42	M
945	487	20	F
946	268	71	F
947	385	26	M
948	135	61	M
949	95	82	M
950	405	57	F
951	232	73	M
952	791	46	M
953	646	64	M
954	515	75	M
955	90	31	M
956	430	36	F
957	858	60	M
958	487	33	M
959	195	44	F
960	312	31	F
961	902	90	M
962	164	51	M
963	737	40	M
964	605	97	M
965	76	50	M
966	799	24	M
967	828	52	F
968	591	61	M
969	255	70	F
970	762	69	F
971	909	58	M
972	532	86	F
973	867	65	M
974	606	76	M
975	816	90	M
976	781	32	F
977	643	24	F
978	328	73	M
979	628	71	M
980	921	97	F
981	520	83	M
982	641	50	M
983	715	33	F
984	43	31	M
985	79	85	M
986	131	83	M
987	394	96	F
988	188	58	M
989	759	23	M
990	575	86	F
991	134	50	F
992	358	92	M
993	584	44	M
994	362	99	M
995	632	80	F
996	30	40	F
997	628	60	F
998	245	28	M
999	645	36	M
